# List of coordinates of stations on the game map.
#
# Each line has 3 elements:
#   * the station number
#   * the x coordinate - in a grid 20 cells wide, counted from the left
#   * the y coordinate - in a grid 15 cells high, counted from the bottom
#
# Copyright (C) 2018 Ralf Funk
# This Source Code Form is subject to the terms of the Mozilla Public
# License, v. 2.0. If a copy of the MPL was not distributed with this
# file, You can obtain one at http://mozilla.org/MPL/2.0/.

  1  3 15
  2  7 15
  3  9 15
  4 10 15
  5 16 15
  6 18 15
  7 19 15
  8  2 14
  9  4 14
 10  8 14
 11  9 14
 12 10 14
 13 11 14
 14 13 15
 15 15 15
 16 16 14
 17 19 14
 18  1 14
 19  3 13
 20  5 14
 21  6 13
 22  9 13
 23 10 13
 24 12 13
 25 13 13
 26 14 14
 27 15 13
 28 15 14
 29 18 13
 30 20 13
 31  2 13
 32  4 13
 33  5 13
 34  8 12
 35  9 12
 36 10 12
 37 11 13
 38 13 13
 39 14 13
 40 15 12
 41 16 13
 42 19 12
 43  1 12
 44  3 12
 45  4 12
 46  6 12
 47  7 12
 48  8 11
 49 10 11
 50 11 12
 51 13 12
 52 14 12
 53 15 12
 54 16 12
 55 18 12
 56 20 12
 57  2 11
 58  4 11
 59  4 11
 60  5 11
 61  6 11
 62  7 11
 63  8 10
 64  9 10
 65 10 10
 66 11 11
 67 12 11
 68 13 11
 69 15 11
 70 16 11
 71 17 11
 72 19 11
 73  2 11
 74  2 10
 75  3 10
 76  4 10
 77  5 10
 78  6 10
 79  7 10
 80  9 10
 81 10  9
 82 10 10
 83 12 10
 84 13 10
 85 13 10
 86 15 10
 87 16 10
 88 17  9
 89 17 10
 90 18 10
 91 20 10
 92  1  9
 93  1  9
 94  2  9
 95  3  9
 96  6  9
 97  7  9
 98  7  9
 99  8  9
100  9  9
101 11  9
102 12 10
103 14 10
104 15  9
105 18  9
106 19  9
107 20  9
108 17  8
109  7  8
110  8  9
111  8  8
112  9  8
113 10  8
114 11  8
115 12  9
116 15  8
117 16  8
118 15  7
119 19  7
120  1  6
121  2  6
122  3  6
123  5  6
124  7  7
125  9  7
126 12  8
127 13  7
128 16  5
129 16  7
130  9  7
131 10  7
132 11  7
133 13  6
134 14  7
135 17  6
136 19  6
137  4  6
138  7  6
139  9  6
140 11  6
141 13  6
142 15  6
143 16  6
144  1  5
145  2  5
146  3  5
147  4  5
148  5  5
149  6  5
150  6  5
151  7  5
152  8  5
153  8  5
154  9  5
155 10  5
156 11  5
157 12  5
158 14  5
159 14  3
160 17  5
161 18  5
162 20  5
163  3  4
164  4  4
165  6  4
166  8  4
167  9  4
168 10  4
169 11  4
170 12  4
171 18  2
172 15  4
173 17  3
174 19  4
175 20  3
176  1  3
177  2  3
178  3  3
179  5  3
180  6  3
181  7  3
182  8  3
183  9  4
184 10  3
185 12  2
186 13  2
187 15  3
188 16  3
189  2  2
190  3  2
191  4  2
192  4  1
193  7  2
194  7  2
195  8  2
196  9  3
197  9  2
198 14  1
199 17  1
